[INFO] Scanning for projects...
[WARNING] 
[WARNING] Some problems were encountered while building the effective model for com.manning.pl:profile-mvc:war:1.0
[WARNING] 'build.plugins.plugin.version' for org.apache.maven.plugins:maven-compiler-plugin is missing. @ line 196, column 21
[WARNING] 
[WARNING] It is highly recommended to fix these problems because they threaten the stability of your build.
[WARNING] 
[WARNING] For this reason, future Maven versions might no longer support building such malformed projects.
[WARNING] 
[INFO] 
[INFO] ---------------------< com.manning.pl:profile-mvc >---------------------
[INFO] Building Profile Management 1.0
[INFO] --------------------------------[ war ]---------------------------------
[INFO] 
[INFO] --- maven-dependency-plugin:2.8:tree (default-cli) @ profile-mvc ---
[INFO] com.manning.pl:profile-mvc:war:1.0
[INFO] +- org.springframework:spring-webmvc:jar:4.0.7.RELEASE:compile
[INFO] |  +- org.springframework:spring-beans:jar:4.0.7.RELEASE:compile
[INFO] |  +- org.springframework:spring-context:jar:4.0.7.RELEASE:compile
[INFO] |  |  \- org.springframework:spring-aop:jar:4.0.7.RELEASE:compile
[INFO] |  |     \- aopalliance:aopalliance:jar:1.0:compile
[INFO] |  +- org.springframework:spring-core:jar:4.0.7.RELEASE:compile
[INFO] |  |  \- commons-logging:commons-logging:jar:1.1.3:compile
[INFO] |  +- org.springframework:spring-expression:jar:4.0.7.RELEASE:compile
[INFO] |  \- org.springframework:spring-web:jar:4.0.7.RELEASE:compile
[INFO] +- org.springframework:spring-orm:jar:4.0.7.RELEASE:compile
[INFO] |  \- org.springframework:spring-tx:jar:4.0.7.RELEASE:compile
[INFO] +- jakarta.xml.bind:jakarta.xml.bind-api:jar:2.3.2:compile
[INFO] |  \- jakarta.activation:jakarta.activation-api:jar:1.2.1:compile
[INFO] +- org.glassfish.jaxb:jaxb-runtime:jar:2.3.2:compile
[INFO] |  +- org.glassfish.jaxb:txw2:jar:2.3.2:compile
[INFO] |  +- com.sun.istack:istack-commons-runtime:jar:3.0.8:compile
[INFO] |  +- org.jvnet.staxex:stax-ex:jar:1.8.1:compile
[INFO] |  \- com.sun.xml.fastinfoset:FastInfoset:jar:1.2.16:compile
[INFO] +- org.springframework.data:spring-data-jpa:jar:1.3.2.RELEASE:compile
[INFO] |  +- org.springframework.data:spring-data-commons:jar:1.5.1.RELEASE:compile
[INFO] |  +- org.aspectj:aspectjrt:jar:1.7.2:compile
[INFO] |  +- org.slf4j:slf4j-api:jar:1.7.1:compile
[INFO] |  \- org.slf4j:jcl-over-slf4j:jar:1.7.1:runtime
[INFO] +- ch.qos.logback:logback-classic:jar:1.0.13:compile
[INFO] |  \- ch.qos.logback:logback-core:jar:1.0.13:compile
[INFO] +- org.hibernate:hibernate-entitymanager:jar:4.0.1.Final:compile
[INFO] |  +- org.jboss.spec.javax.transaction:jboss-transaction-api_1.1_spec:jar:1.0.0.Final:compile
[INFO] |  +- dom4j:dom4j:jar:1.6.1:compile
[INFO] |  |  \- xml-apis:xml-apis:jar:1.0.b2:compile
[INFO] |  +- org.hibernate:hibernate-core:jar:4.0.1.Final:compile
[INFO] |  |  +- commons-collections:commons-collections:jar:3.2.1:compile
[INFO] |  |  \- antlr:antlr:jar:2.7.7:compile
[INFO] |  +- org.hibernate.javax.persistence:hibernate-jpa-2.0-api:jar:1.0.1.Final:compile
[INFO] |  +- org.jboss.logging:jboss-logging:jar:3.1.0.CR2:compile
[INFO] |  +- org.javassist:javassist:jar:3.15.0-GA:compile
[INFO] |  \- org.hibernate.common:hibernate-commons-annotations:jar:4.0.1.Final:compile
[INFO] +- com.zaxxer:HikariCP:jar:3.4.1:compile
[INFO] +- commons-fileupload:commons-fileupload:jar:1.2:compile
[INFO] +- commons-io:commons-io:jar:2.5:compile
[INFO] +- org.springframework:spring-jdbc:jar:4.0.7.RELEASE:compile
[INFO] +- com.h2database:h2:jar:1.4.182:compile
[INFO] +- org.projectlombok:lombok:jar:1.18.10:compile
[INFO] +- org.hibernate:hibernate-validator:jar:5.0.1.Final:compile
[INFO] |  +- javax.validation:validation-api:jar:1.1.0.Final:compile
[INFO] |  \- com.fasterxml:classmate:jar:0.8.0:compile
[INFO] +- org.apache.commons:commons-lang3:jar:3.1:compile
[INFO] +- org.thymeleaf:thymeleaf-spring4:jar:2.1.3.RELEASE:compile
[INFO] |  \- org.thymeleaf:thymeleaf:jar:2.1.3.RELEASE:compile
[INFO] |     +- ognl:ognl:jar:3.0.6:compile
[INFO] |     \- org.unbescape:unbescape:jar:1.0:compile
[INFO] +- javax.servlet:javax.servlet-api:jar:3.1.0:provided
[INFO] +- javax.xml.bind:jaxb-api:jar:2.3.1:provided
[INFO] |  \- javax.activation:javax.activation-api:jar:1.2.0:provided
[INFO] +- junit:junit:jar:4.11:test
[INFO] |  \- org.hamcrest:hamcrest-core:jar:1.3:compile
[INFO] +- org.springframework:spring-test:jar:4.0.7.RELEASE:compile
[INFO] +- org.mockito:mockito-core:jar:1.9.5:compile
[INFO] |  \- org.objenesis:objenesis:jar:1.0:compile
[INFO] +- org.hamcrest:hamcrest-library:jar:1.3:compile
[INFO] \- mysql:mysql-connector-java:jar:8.0.11:compile
[INFO]    \- com.google.protobuf:protobuf-java:jar:2.6.0:runtime
[INFO] ------------------------------------------------------------------------
[INFO] BUILD SUCCESS
[INFO] ------------------------------------------------------------------------
[INFO] Total time: 0.966 s
[INFO] Finished at: 2020-05-24T13:31:04+02:00
[INFO] ------------------------------------------------------------------------
